
 .----------------.  .----------------.  .----------------.  .----------------. 
| .--------------. || .--------------. || .--------------. || .--------------. |
| | ____    ____ | || |     ____     | || |  ___  ____   | || |     ____     | |
| ||_   \  /   _|| || |   .'    `.   | || | |_  ||_  _|  | || |   .'    `.   | |
| |  |   \/   |  | || |  /  .--.  \  | || |   | |_/ /    | || |  /  .--.  \  | |
| |  | |\  /| |  | || |  | |    | |  | || |   |  __'.    | || |  | |    | |  | |
| | _| |_\/_| |_ | || |  \  `--'  /  | || |  _| |  \ \_  | || |  \  `--'  /  | |
| ||_____||_____|| || |   `.____.'   | || | |____||____| | || |   `.____.'   | |
| |              | || |              | || |              | || |              | |
| '--------------' || '--------------' || '--------------' || '--------------' |
 '----------------'  '----------------'  '----------------'  '----------------' 
